…
# setequal(Batting.2000b, Batting.2000c)
  
Batting.2000 <- Batting.2000 %>%
  mutate(Age = yearID - Birthyear)
  
# Batting.2000a$Age <- with(Batting.2000a, yearID - Birthyear)
# Batting.2000a[complete.cases(Batting.2000a$Age), ]
# head(Batting.2000a)

Batting.2000[complete.cases(Batting.2000$Age), ]
```

```
## # A tibble: 29,401 x 23
## # Groups:   playerID [2,373]
##     playerID yearID     G    AB     R     H   X2B   X3B    HR   RBI    SB    CS    BB    SH    SF   HBP       SLG       OBP       OPS Career.AB   POS Birthyear   Age
##        <chr>  <int> <int> <int> <int> <int> <int> <int> <int> <int> <int> <int> <int> <int> <dbl> <dbl>     <dbl>     <dbl>     <dbl>     <int> <chr>     <dbl> <dbl>
##  1 aaronha01   1954   122   468    58   131    27     6    13    69     2     2    28     6     4     3 0.4465812 0.3220676 0.7686488     12364    OF      1934    20
##  2 aaronha01   1955   153   602   105   189    37     9    27   106     3     1    49     7     4     3 0.5398671 0.3662614 0.9061285     12364    OF      1934    21
##  3 aaronha01   1956   153   609   106   200    34    14    26    92     2     4    37     5     7     2 0.5582923 0.3648855 0.9231778     12364    OF      1934    22
##  4 aaronha01   1957   151   615   118   198    27     6    44   132     1     1    57     0     3     0 0.6000000 0.3777778 0.9777778     12364    OF      1934    23
##  5 aaronha01   1958   153   601   109   196    34     4    30    95     4     1    59     0     3     1 0.5457571 0.3855422 0.9312992     12364    OF      1934    24
##  6 aaronha01   1959   154   629   116   223    46     7    39   123     8     0    51     0     9     4 0.6359300 0.4011544 1.0370844     12364    OF      1934    25
##  7 aaronha01   1960   153   590   102   172    20    11    40   126    16     7    60     0    12     2 0.5661017 0.3524096 0.9185113     12364    OF      1934    26
##  8 aaronha01   1961   155   603   115   197    39    10    34   120    21     9    56     1     9     2 0.5936982 0.3805970 0.9742952     12364    OF      1934    27
##  9 aaronha01   1962   156   592   127   191    28     6    45   128    15     7    66     0     6     3 0.6182432 0.3898051 1.0080483     12364    OF      1934    28
## 10 aaronha01   1963   161   631   121   201    29     4    44   130    31     5    78     0     5     0 0.5863708 0.3907563 0.9771271     12364    OF      1934    29
## # ... with 29,391 more rows
```
…
