…
```r
onerunwins <- onerungames %>% 
  group_by(winner) %>% 
  tally()
names(onerunwins) <- c("teamID", "onerunW")
onerunwins
```

```
## # A tibble: 30 × 2
##    teamID onerunW
##     <chr>   <int>
## 1     ANA      27
## 2     ARI      28
## 3     ATL      29
## 4     BAL      22
## 5     BOS      19
## 6     CHA      24
## 7     CHN      25
## 8     CIN      29
## 9     CLE      30
## 10    COL      21
## # ... with 20 more rows
```
…
